patrick,patrick,patrick@gmail.com,22patricj
patrick 123,asdasd,2131@gmail.com,23
patrick,glen,patrick@gmail.com,22
glen,patrick,pat@gmail.com,10,male
glen,patrick,pat@gmail.com,10,male
glen,patrick,pat@gmail.com,10,male
pattrick,patrick,pat@gmail.com,23,male
pat,pat,tap@gmail.com,13,male
kcirtap,patrick,pat@gmail.com,32,male
pat,pat,pat@gmail.com,20,female
glen,patrick,pat@gmail.com,19,female
patpat,patpat,patpat@gmail.com,15,male
